{
    "@class": "com.kony.gen.viz.model.component.KVizButton",
    "DNDConfig": null,
    "__parentReadjusting__": false,
    "_bottom_": {
        "type": "string",
        "value": "30dp"
    },
    "_height_": {
        "type": "string",
        "value": "40dp"
    },
    "_left_": {
        "type": "string",
        "value": "10dp"
    },
    "_margin_": [
        6,
        6,
        6,
        6
    ],
    "_padding_": [
        15,
        3,
        15,
        5
    ],
    "_skin_": "sddbd2aaf8a94ed09b340d1778246390",
    "_text_": "Submit",
    "_top_": {
        "type": "string",
        "value": "20dp"
    },
    "_width_": {
        "type": "ref",
        "value": "preferred"
    },
    "canUpdateUI": true,
    "containerweight": 100,
    "contentalignment": 5,
    "desktopweb": {
        "padding": [
            15,
            3,
            15,
            5
        ],
        "paddingInPixel": true,
        "psp": {
            "hoverSkin": "s7709932a76246b4a9a607da3ddcfad7"
        }
    },
    "disabledSkins": {},
    "displaytext": true,
    "focusskin": "sddbd2aaf8a94ed09b340d1778246390",
    "id": "btnSubmitData",
    "info": null,
    "iscustomlayout": false,
    "isvisible": true,
    "kuid": "gf82530b1620498c8a8f6902c22f0139",
    "name": "kony.ui.Button",
    "paddinginpixel": false,
    "parent": "CopyflxRefnumber0ff4c3cf931e040",
    "pf": "frmReivewLater",
    "retaincontentalignment": false,
    "retainflexpositionproperties": false,
    "wType": "Button",
    "zindex": 1
}