{
    "@class": "com.kony.gen.viz.model.component.KVizButton",
    "DNDConfig": null,
    "__parentReadjusting__": false,
    "_height_": {
        "type": "string",
        "value": "40dp"
    },
    "_margin_": [
        6,
        6,
        6,
        6
    ],
    "_padding_": [
        15,
        3,
        15,
        5
    ],
    "_right_": {
        "type": "string",
        "value": "20dp"
    },
    "_skin_": "sddbd2aaf8a94ed09b340d1778246390",
    "_text_": "Explore",
    "_top_": {
        "type": "string",
        "value": "20dp"
    },
    "_width_": {
        "type": "ref",
        "value": "preferred"
    },
    "canUpdateUI": true,
    "containerweight": 100,
    "contentalignment": 5,
    "desktopweb": {
        "padding": [
            15,
            3,
            15,
            5
        ],
        "paddingInPixel": true,
        "psp": {
            "hoverSkin": "s7709932a76246b4a9a607da3ddcfad7"
        }
    },
    "disabledSkins": {},
    "displaytext": true,
    "focusskin": "s7709932a76246b4a9a607da3ddcfad7",
    "hoverskin": "",
    "id": "CopybtnExploreFoodDelivery0a55b5742ae6b4f",
    "info": null,
    "iscustomlayout": false,
    "isvisible": true,
    "kuid": "f4135fd5d8e748faa7acd01374cfd187",
    "name": "kony.ui.Button",
    "paddinginpixel": false,
    "parent": "CopyflxFirstTime0gfbcdf80384d46",
    "pf": "frmStandardComparisions",
    "responsiveData": {
        "b1": {
            "top": {
                "type": "string",
                "value": "30dp"
            }
        },
        "b2": {
            "top": {
                "type": "string",
                "value": "40dp"
            }
        },
        "b3": {
            "desktopweb": {
                "psp": {}
            },
            "disabledSkins": {},
            "top": {
                "type": "string",
                "value": "50dp"
            }
        }
    },
    "retaincontentalignment": false,
    "retainflexpositionproperties": false,
    "wType": "Button",
    "zindex": 1
}