{
    "@class": "com.kony.gen.viz.model.component.KVizTextBox2",
    "DNDConfig": null,
    "__parentReadjusting__": false,
    "_height_": {
        "type": "string",
        "value": "30dp"
    },
    "_left_": {
        "type": "string",
        "value": "5%"
    },
    "_margin_": [
        0,
        0,
        0,
        0
    ],
    "_padding_": [
        1,
        0,
        0,
        0
    ],
    "_placeholder_": "Meal name here",
    "_skin_": "s501047972194a23a5658b144ee7fc03",
    "_text_": "Banana pudding",
    "_top_": {
        "type": "string",
        "value": "0dp"
    },
    "_width_": {
        "type": "string",
        "value": "60%"
    },
    "autocapitalize": "none",
    "autocomplete": false,
    "autocorrect": false,
    "autofilter": false,
    "canUpdateUI": true,
    "containerheight": "",
    "containerheightmode": 1,
    "containerweight": 100,
    "contentalignment": 4,
    "desktopweb": {
        "placeholderSkin": "s922ded228bd40e9aeee2bc84004496b"
    },
    "disabledSkins": {},
    "focusskin": "s501047972194a23a5658b144ee7fc03",
    "id": "tbxMeal2Name",
    "info": null,
    "iscustomlayout": false,
    "isvisible": true,
    "keyboardtype": "A",
    "kuid": "e5fd3f771ab24a5284d3e8b5a5208034",
    "mode": "A",
    "name": "kony.ui.TextBox2",
    "paddinginpixel": false,
    "parent": "CopyFlexContainer0f6464d3c8d1340",
    "pf": "frmDeliveryOptions",
    "placeholderskin": "s922ded228bd40e9aeee2bc84004496b",
    "responsiveData": {
        "b1": {
            "desktopweb": {},
            "disabledSkins": {},
            "padding": [
                1,
                0,
                0,
                0
            ]
        },
        "b2": {
            "left": {
                "type": "string",
                "value": "2%"
            }
        },
        "b3": {
            "left": {
                "type": "string",
                "value": "2%"
            },
            "width": {
                "type": "string",
                "value": "50%"
            }
        }
    },
    "retaincontentalignment": false,
    "retainflexpositionproperties": false,
    "securetextentry": false,
    "textinputmode": "A",
    "tooltip": "",
    "viewtype": "default",
    "wType": "TextField",
    "zindex": 1
}