{
    "AS_Form_iae55213adff494d998824f6042f46b3": {
        "id": "AS_Form_iae55213adff494d998824f6042f46b3",
        "type": "ACTION_SEQUENCE",
        "params": [{
            "datatype": "collection",
            "name": "eventobject"
        }],
        "contextObj": {
            "name": "frmReivewLater",
            "type": "forms",
            "platform": null,
            "KUID": "ee1b280febf64c33b2257a956b393014"
        },
        "language": "js",
        "actions": [{
            "id": "ADD_SNIPPET_ide_init_cde142c82fd345a792bb88e9e69229d1",
            "type": "ADD_SNIPPET",
            "codeSnippet": "this.init();"
        }]
    }
}