{
    "AS_Form_j3317540ea9d42028bdc8492c0cdcbf6": {
        "id": "AS_Form_j3317540ea9d42028bdc8492c0cdcbf6",
        "type": "ACTION_SEQUENCE",
        "params": [{
            "datatype": "collection",
            "name": "eventobject"
        }],
        "contextObj": {
            "name": "frmRestaurantDataForm",
            "type": "forms",
            "platform": "",
            "KUID": "ff4d680fdbe24cc9ac27aa02c83e6c76"
        },
        "language": "js",
        "actions": [{
            "id": "ADD_SNIPPET__c8ee096615a34ee4b54be6e77db6ceb3",
            "type": "ADD_SNIPPET",
            "codeSnippet": "this.init();",
            "parentId": null
        }]
    }
}