{
    "@class": "com.kony.gen.viz.model.component.KVizButton",
    "DNDConfig": null,
    "__parentReadjusting__": false,
    "_height_": {
        "type": "string",
        "value": "40dp"
    },
    "_margin_": [
        6,
        6,
        6,
        6
    ],
    "_padding_": [
        15,
        3,
        15,
        5
    ],
    "_right_": {
        "type": "string",
        "value": "2%"
    },
    "_skin_": "sddbd2aaf8a94ed09b340d1778246390",
    "_text_": "Sign up",
    "_top_": {
        "type": "string",
        "value": "42dp"
    },
    "_width_": {
        "type": "ref",
        "value": "preferred"
    },
    "canUpdateUI": true,
    "centery": {
        "type": "string",
        "value": "50%"
    },
    "containerweight": 100,
    "contentalignment": 5,
    "desktopweb": {
        "padding": [
            15,
            3,
            15,
            5
        ],
        "paddingInPixel": true,
        "psp": {}
    },
    "disabledSkins": {
        "hoverSkin": "s7709932a76246b4a9a607da3ddcfad7"
    },
    "displaytext": true,
    "focusskin": "sddbd2aaf8a94ed09b340d1778246390",
    "id": "btnSignUp",
    "info": null,
    "iscustomlayout": false,
    "isvisible": false,
    "kuid": "b0a79b57fbd74e0382f19f4f4e144f7f",
    "name": "kony.ui.Button",
    "paddinginpixel": false,
    "parent": "flexHeader",
    "pf": "frmJourneyBegin",
    "retaincontentalignment": false,
    "retainflexpositionproperties": false,
    "wType": "Button",
    "zindex": 1
}