{
    "DNDConfig": null,
    "__parentReadjusting__": false,
    "_height_": {
        "type": "string",
        "value": "35dp"
    },
    "_left_": {
        "type": "string",
        "value": "0dp"
    },
    "_margin_": [
        0,
        0,
        0,
        0
    ],
    "_orientation_": 6,
    "_padding_": [
        0,
        0,
        0,
        0
    ],
    "_percent_": true,
    "_skin_": "s0eab5f305574640bc5d5925208fc6ad",
    "_top_": {
        "type": "string",
        "value": "20dp"
    },
    "_width_": {
        "type": "string",
        "value": "100%"
    },
    "allboxes": [],
    "canUpdateUI": true,
    "children": [
        "CopylblYearsActive0cb099a63e42c4a",
        "radioLocalSupplies"
    ],
    "clipbounds": false,
    "containerweight": 100,
    "enablescrolling": true,
    "id": "CopyflxYearActive0g41399fbdac840",
    "info": null,
    "iscustomlayout": false,
    "isvisible": true,
    "kuid": "j443a1a07c824c7daceb0545133851e0",
    "layouttype": 2,
    "name": "kony.ui.FlexContainer",
    "parent": "flxRestaurant",
    "pf": "frmRestaurantDataForm",
    "responsiveData": {
        "b3": {
            "height": {
                "type": "string",
                "value": "70dp"
            }
        }
    },
    "retaincontentalignment": false,
    "retainflexpositionproperties": false,
    "retainflowhorizontalalignment": false,
    "snapgridsize": 10,
    "snaptogrid": true,
    "wType": "FlexContainer",
    "widgetalignment": 1
}