{
    "DNDConfig": null,
    "__parentReadjusting__": false,
    "_height_": {
        "type": "string",
        "value": "35dp"
    },
    "_left_": {
        "type": "string",
        "value": "0dp"
    },
    "_margin_": [
        0,
        0,
        0,
        0
    ],
    "_orientation_": 6,
    "_padding_": [
        0,
        0,
        0,
        0
    ],
    "_percent_": true,
    "_skin_": "s0eab5f305574640bc5d5925208fc6ad",
    "_top_": {
        "type": "string",
        "value": "20dp"
    },
    "_width_": {
        "type": "string",
        "value": "100%"
    },
    "allboxes": [],
    "autogrowmode": 0,
    "canUpdateUI": true,
    "children": [
        "CopylblYearsActive0i82b4deb6e9b4b",
        "CopytbxPayroll0e8b7905fe60b4d"
    ],
    "clipbounds": false,
    "containerweight": 100,
    "enablescrolling": true,
    "id": "CopyflxYearActive0h4796a97f95a44",
    "info": null,
    "iscustomlayout": false,
    "isvisible": false,
    "kuid": "df27f9f758d044c7ade292e75d66319c",
    "layouttype": 2,
    "name": "kony.ui.FlexContainer",
    "parent": "flxRestaurant",
    "pf": "frmRestaurantDataForm",
    "retaincontentalignment": false,
    "retainflexpositionproperties": false,
    "retainflowhorizontalalignment": false,
    "snapgridsize": 10,
    "snaptogrid": true,
    "wType": "FlexContainer",
    "widgetalignment": 1
}